Modelos de distribución de especies
…
broom::tidy(model)

## # A tibble: 4 x 5
##   term          estimate std.error statistic p.value
##   <chr>            <dbl>     <dbl>     <dbl>   <dbl>
## 1 (Intercept)  0.0126    0.105         0.121 0.904  
## 2 bio16        0.0000951 0.000112      0.850 0.396  
## 3 bio12        0.000124  0.0000411     3.01  0.00274
## 4 bio5        -0.000285  0.000340     -0.838 0.402

broom::augment(model)

## # A tibble: 616 x 11
##       ap bio16 bio12  bio5 .fitted .se.fit .resid    .hat .sigma .cooksd
##    <dbl> <dbl> <dbl> <dbl>   <dbl>   <dbl>  <dbl>   <dbl>  <dbl>   <dbl>
##  1     1   724  1639   338   0.188  0.0179  0.812 0.00256  0.353 0.00338
##  2     1   724  1639   338   0.188  0.0179  0.812 0.00256  0.353 0.00338
##  3     1  1547  3624   329   0.514  0.0367  0.486 0.0107   0.354 0.00517
##  4     1   775  1693   318   0.205  0.0178  0.795 0.00252  0.353 0.00319
##  5     1   775  1693   318   0.205  0.0178  0.795 0.00252  0.353 0.00319
##  6     1  1081  2501   326   0.332  0.0226  0.668 0.00408  0.353 0.00366
##  7     1   516  1214   317   0.121  0.0156  0.879 0.00194  0.352 0.00300
##  8     1   956  2259   335   0.287  0.0196  0.713 0.00307  0.353 0.00313
##  9     1   807  2212   327   0.270  0.0184  0.730 0.00271  0.353 0.00290
## 10     1   877  2233   329   0.278  0.0173  0.722 0.00240  0.353 0.00251
## # … with 606 more rows, and 1 more variable: .std.resid <dbl>
…
